#
# $Id$
#
SIZENAME:F		ABB:F	DISPLAYNAME:Fine
SIZENAME:F		BONUS:ITEMCOST|TYPE=Ammunition,TYPE=Armor,TYPE=Shield,TYPE=Weapon|0.5
SIZENAME:F		BONUS:ITEMWEIGHT|TYPE=Ammunition,TYPE=Armor,TYPE=Shield,TYPE=Weapon|0.1	BONUS:ITEMWEIGHT|TYPE=Goods|0.25
SIZENAME:F		BONUS:ACVALUE|TYPE.Armor,TYPE.Shield|0.5	BONUS:COMBAT|AC|8|TYPE=Size	BONUS:COMBAT|TOHIT|8|TYPE=SIZE
SIZENAME:F		BONUS:ITEMCAPACITY|TYPE=Goods|0.25
#SIZENAME:F		BONUS:SKILL|Fly|8|TYPE=Size	
#BONUS:SKILL|Stealth|16|TYPE=Size	BONUS:SKILL|Climb|DEX-STR
SIZENAME:F		BONUS:LOADMULT|TYPE=Size|0.125|PRELEGSGTEQ:4
SIZENAME:F		BONUS:VAR|PrimaryAttackDamageDice|1|TYPE=Base	BONUS:VAR|PrimaryAttackDamageSize|1|TYPE=Base
#
SIZENAME:D	ABB:D	DISPLAYNAME:Diminutive	
SIZENAME:D	BONUS:ITEMCOST|TYPE=Ammunition,TYPE=Armor,TYPE=Shield,TYPE=Weapon|0.5
SIZENAME:D	BONUS:ITEMWEIGHT|TYPE=Ammunition,TYPE=Armor,TYPE=Shield,TYPE=Weapon|0.1	BONUS:ITEMWEIGHT|TYPE=Goods|0.25
SIZENAME:D	BONUS:ACVALUE|TYPE.Armor,TYPE.Shield|0.5	BONUS:COMBAT|AC|4|TYPE=Size	BONUS:COMBAT|TOHIT|4|TYPE=Size
SIZENAME:D	BONUS:ITEMCAPACITY|TYPE=Goods|0.25
#SIZENAME:D	BONUS:SKILL|Fly|6|TYPE=Size
#BONUS:SKILL|Stealth|12|TYPE=Size	BONUS:SKILL|Climb|DEX-STR
SIZENAME:D	BONUS:LOADMULT|TYPE=Size|0.25|PRELEGSGTEQ:4
SIZENAME:D	BONUS:VAR|PrimaryAttackDamageDice|1|TYPE=Base	BONUS:VAR|PrimaryAttackDamageSize|1|TYPE=Base
#
SIZENAME:T		ABB:T	DISPLAYNAME:Tiny	
SIZENAME:T		BONUS:ITEMCOST|TYPE=Ammunition,TYPE=Armor,TYPE=Shield,TYPE=Weapon|0.5
SIZENAME:T		BONUS:ITEMWEIGHT|TYPE=Ammunition,TYPE=Armor,TYPE=Shield,TYPE=Weapon|0.1	BONUS:ITEMWEIGHT|TYPE=Goods|0.25
SIZENAME:T		BONUS:ACVALUE|TYPE.Armor,TYPE.Shield|0.5	BONUS:COMBAT|AC|2|TYPE=Size	BONUS:COMBAT|TOHIT|2|TYPE=SIZE
SIZENAME:T		BONUS:ITEMCAPACITY|TYPE=Goods|0.25
#SIZENAME:T		BONUS:SKILL|Fly|4|TYPE=Size
#BONUS:SKILL|Stealth|8|TYPE=Size	BONUS:SKILL|Climb|DEX-STR
SIZENAME:T		BONUS:LOADMULT|TYPE=Size|0.25|PRELEGSGTEQ:4
SIZENAME:T		BONUS:VAR|PrimaryAttackDamageDice|1|TYPE=Base	BONUS:VAR|PrimaryAttackDamageSize|2|TYPE=Base
#
SIZENAME:S		ABB:S	DISPLAYNAME:Small	
SIZENAME:S		BONUS:ITEMCOST|TYPE=Ammunition,TYPE=Armor,TYPE=Shield,TYPE=Weapon|1
SIZENAME:S		BONUS:ITEMWEIGHT|TYPE=Ammunition,TYPE=Armor,TYPE=Shield,TYPE=Weapon|0.5	BONUS:ITEMWEIGHT|TYPE=Goods|0.25
SIZENAME:S		BONUS:ACVALUE|TYPE.Armor,TYPE.Shield|1	BONUS:COMBAT|AC|1|TYPE=Size	BONUS:COMBAT|TOHIT|1|TYPE=SIZE
SIZENAME:S		BONUS:ITEMCAPACITY|TYPE=Goods|0.25
#SIZENAME:S		BONUS:SKILL|Fly|2|TYPE=Size
#BONUS:SKILL|Stealth|4|TYPE=Size
SIZENAME:S		BONUS:LOADMULT|TYPE=Size|0.25|PRELEGSGTEQ:4
SIZENAME:S		BONUS:VAR|PrimaryAttackDamageDice|1|TYPE=Base	BONUS:VAR|PrimaryAttackDamageSize|3|TYPE=Base
#
SIZENAME:M		ABB:M	DISPLAYNAME:Medium	
SIZENAME:M		BONUS:ITEMCOST|TYPE=Ammunition,TYPE=Armor,TYPE=Shield,TYPE=Weapon|1
SIZENAME:M		BONUS:ITEMWEIGHT|TYPE=Ammunition,TYPE=Armor,TYPE=Shield,TYPE=Weapon|1	BONUS:ITEMWEIGHT|TYPE=Goods|1
SIZENAME:M		BONUS:ACVALUE|TYPE.Armor,TYPE.Shield|1
SIZENAME:M		BONUS:ITEMCAPACITY|TYPE=Goods|1	ISDEFAULTSIZE:Y
SIZENAME:M		BONUS:LOADMULT|TYPE=Size|0.5|PRELEGSGTEQ:4
SIZENAME:M		BONUS:VAR|PrimaryAttackDamageDice|1|TYPE=Base	BONUS:VAR|PrimaryAttackDamageSize|4|TYPE=Base
#
SIZENAME:L		ABB:L	DISPLAYNAME:Large	
SIZENAME:L		BONUS:ITEMCOST|TYPE=Ammunition,TYPE=Armor,TYPE=Shield,TYPE=Weapon|2
SIZENAME:L		BONUS:ITEMWEIGHT|TYPE=Ammunition,TYPE=Armor,TYPE=Shield,TYPE=Weapon|2	BONUS:ITEMWEIGHT|TYPE=Goods|1
SIZENAME:L		BONUS:ACVALUE|TYPE.Armor,TYPE.Shield|1	BONUS:COMBAT|AC|-1|TYPE=Size	BONUS:COMBAT|TOHIT|-1|TYPE=SIZE
SIZENAME:L		BONUS:ITEMCAPACITY|TYPE=Goods|1
#SIZENAME:L		BONUS:SKILL|Fly|-2|TYPE=Size	BONUS:SKILL|Stealth|-4|TYPE=Size
SIZENAME:L		BONUS:LOADMULT|TYPE=Size|1|PRELEGSGTEQ:4
SIZENAME:L		BONUS:VAR|PrimaryAttackDamageDice|1|TYPE=Base	BONUS:VAR|PrimaryAttackDamageSize|6|TYPE=Base
#
SIZENAME:H		ABB:H	DISPLAYNAME:Huge	
SIZENAME:H		BONUS:ITEMCOST|TYPE=Ammunition,TYPE=Armor,TYPE=Shield,TYPE=Weapon|4
SIZENAME:H		BONUS:ITEMWEIGHT|TYPE=Ammunition,TYPE=Armor,TYPE=Shield,TYPE=Weapon|5	BONUS:ITEMWEIGHT|TYPE=Goods|1
SIZENAME:H		BONUS:ACVALUE|TYPE.Armor,TYPE.Shield|1	BONUS:COMBAT|AC|-2|TYPE=Size	BONUS:COMBAT|TOHIT|-2|TYPE=SIZE
SIZENAME:H		BONUS:ITEMCAPACITY|TYPE=Goods|1
#SIZENAME:H		BONUS:SKILL|Fly|-4|TYPE=Size	BONUS:SKILL|Stealth|-8|TYPE=Size
SIZENAME:H		BONUS:LOADMULT|TYPE=Size|2|PRELEGSGTEQ:4
SIZENAME:H		BONUS:VAR|PrimaryAttackDamageDice|1|TYPE=Base	BONUS:VAR|PrimaryAttackDamageSize|8|TYPE=Base
#
SIZENAME:G	ABB:G	DISPLAYNAME:Gargantuan	
SIZENAME:G	BONUS:ITEMCOST|TYPE=Ammunition,TYPE=Armor,TYPE=Shield,TYPE=Weapon|8
SIZENAME:G	BONUS:ITEMWEIGHT|TYPE=Ammunition,TYPE=Armor,TYPE=Shield,TYPE=Weapon|8	BONUS:ITEMWEIGHT|TYPE=Goods|1
SIZENAME:G	BONUS:ACVALUE|TYPE.Armor,TYPE.Shield|1	BONUS:COMBAT|AC|-4|TYPE=Size	BONUS:COMBAT|TOHIT|-4|TYPE=SIZE
SIZENAME:G	BONUS:ITEMCAPACITY|TYPE=Goods|1
#SIZENAME:G	BONUS:SKILL|Fly|-6|TYPE=Size	BONUS:SKILL|Stealth|-12|TYPE=Size
SIZENAME:G	BONUS:LOADMULT|TYPE=Size|4|PRELEGSGTEQ:4
SIZENAME:G	BONUS:VAR|PrimaryAttackDamageDice|2|TYPE=Base	BONUS:VAR|PrimaryAttackDamageSize|6|TYPE=Base
#
SIZENAME:C		ABB:C	DISPLAYNAME:Colossal	
SIZENAME:C		BONUS:ITEMCOST|TYPE=Ammunition,TYPE=Armor,TYPE=Shield,TYPE=Weapon|16
SIZENAME:C		BONUS:ITEMWEIGHT|TYPE=Ammunition,TYPE=Armor,TYPE=Shield,TYPE=Weapon|12	BONUS:ITEMWEIGHT|TYPE=Goods|1
SIZENAME:C		BONUS:ACVALUE|TYPE.Armor,TYPE.Shield|1	BONUS:COMBAT|AC|-8|TYPE=Size	BONUS:COMBAT|TOHIT|-8|TYPE=SIZE
SIZENAME:C		BONUS:ITEMCAPACITY|TYPE=Goods|1
#SIZENAME:C		BONUS:SKILL|Fly|-8|TYPE=Size	BONUS:SKILL|Stealth|-16|TYPE=Size
SIZENAME:C		BONUS:LOADMULT|TYPE=Size|8|PRELEGSGTEQ:4
SIZENAME:C		BONUS:VAR|PrimaryAttackDamageDice|2|TYPE=Base	BONUS:VAR|PrimaryAttackDamageSize|8|TYPE=Base

###Block: SIZENUM
SIZENAME:F	SIZENUM:010
SIZENAME:D	SIZENUM:020
SIZENAME:T	SIZENUM:030
SIZENAME:S	SIZENUM:040
SIZENAME:M	SIZENUM:050
SIZENAME:L	SIZENUM:060
SIZENAME:H	SIZENUM:070
SIZENAME:G	SIZENUM:080
SIZENAME:C	SIZENUM:090
