# This file determines level based benefits.
#
# Complies with standard RPG progression
#
# Equation used to calculate XP:
# xp = 500 * level * (level - 1)
#
# $Id$ 
#
LEVEL:LEVEL	MINXP:LEVEL		CSKILLMAX:LEVEL	CCSKILLMAX:LEVEL
#
# end
#
